﻿ARIMA(0, 0, 0)x(0, 0, 0, 12)12 - AIC:3066.359830373043

ARIMA(0, 0, 0)x(0, 0, 1, 12)12 - AIC:2684.170986687121

ARIMA(0, 0, 0)x(0, 0, 2, 12)12 - AIC:2397.5640267185827

ARIMA(0, 0, 0)x(0, 0, 3, 12)12 - AIC:2143.668528773449

ARIMA(0, 0, 0)x(0, 0, 4, 12)12 - AIC:9992.672444696083

ARIMA(0, 0, 0)x(0, 1, 0, 12)12 - AIC:2249.0821290505505

ARIMA(0, 0, 0)x(0, 1, 1, 12)12 - AIC:2084.875107922767

ARIMA(0, 0, 0)x(0, 1, 2, 12)12 - AIC:1922.0186112147276

ARIMA(0, 0, 0)x(0, 1, 3, 12)12 - AIC:1757.3751436459438

ARIMA(0, 0, 0)x(0, 1, 4, 12)12 - AIC:8612.235533165982

ARIMA(0, 0, 0)x(0, 2, 0, 12)12 - AIC:2210.165906178454

ARIMA(0, 0, 0)x(0, 2, 1, 12)12 - AIC:1925.7383153801788

ARIMA(0, 0, 0)x(0, 2, 2, 12)12 - AIC:1738.3334950480196

ARIMA(0, 0, 0)x(0, 2, 3, 12)12 - AIC:1578.326875367822

ARIMA(0, 0, 0)x(0, 2, 4, 12)12 - AIC:4194.309329318236

ARIMA(0, 0, 0)x(0, 3, 0, 12)12 - AIC:2123.9626376335436

ARIMA(0, 0, 0)x(0, 3, 1, 12)12 - AIC:1843.3349650253515

ARIMA(0, 0, 0)x(0, 3, 2, 12)12 - AIC:1658.6957853475403

ARIMA(0, 0, 0)x(0, 3, 3, 12)12 - AIC:4389.588397679921

ARIMA(0, 0, 0)x(0, 4, 0, 12)12 - AIC:1971.3420431137179

ARIMA(0, 0, 0)x(0, 4, 1, 12)12 - AIC:1713.6166864473566

ARIMA(0, 0, 0)x(0, 4, 2, 12)12 - AIC:1521.7011682375314

ARIMA(0, 0, 0)x(0, 4, 3, 12)12 - AIC:nan

ARIMA(0, 0, 0)x(0, 5, 0, 12)12 - AIC:1844.9003192933687

ARIMA(0, 0, 0)x(0, 5, 1, 12)12 - AIC:1652.4380846078407

ARIMA(0, 0, 0)x(0, 5, 2, 12)12 - AIC:1393.9095750307163

ARIMA(0, 0, 0)x(0, 5, 3, 12)12 - AIC:6314.248867949603

ARIMA(0, 0, 0)x(1, 0, 0, 12)12 - AIC:2245.901362511697

ARIMA(0, 0, 0)x(1, 0, 1, 12)12 - AIC:2198.011171112408

ARIMA(0, 0, 0)x(1, 0, 2, 12)12 - AIC:2049.3671487152783

ARIMA(0, 0, 0)x(1, 0, 3, 12)12 - AIC:1890.4907034461207

ARIMA(0, 0, 0)x(1, 0, 4, 12)12 - AIC:3927.9021689957895

ARIMA(0, 0, 0)x(1, 1, 0, 12)12 - AIC:2095.9594310073894

ARIMA(0, 0, 0)x(1, 1, 1, 12)12 - AIC:2084.7658090069217

ARIMA(0, 0, 0)x(1, 1, 2, 12)12 - AIC:1901.369027359533

ARIMA(0, 0, 0)x(1, 1, 3, 12)12 - AIC:1759.4180332251667

ARIMA(0, 0, 0)x(1, 1, 4, 12)12 - AIC:4411.737087301228

ARIMA(0, 0, 0)x(1, 2, 0, 12)12 - AIC:1982.5226621008437

ARIMA(0, 0, 0)x(1, 2, 1, 12)12 - AIC:1905.4890417968782

ARIMA(0, 0, 0)x(1, 2, 2, 12)12 - AIC:1739.6329573403389

ARIMA(0, 0, 0)x(1, 2, 3, 12)12 - AIC:1573.3486598624263

ARIMA(0, 0, 0)x(1, 2, 4, 12)12 - AIC:4027.9494712347055

ARIMA(0, 0, 0)x(1, 3, 0, 12)12 - AIC:1849.9073157087992

ARIMA(0, 0, 0)x(1, 3, 1, 12)12 - AIC:1813.3491203941578

ARIMA(0, 0, 0)x(1, 3, 2, 12)12 - AIC:1643.4653838799893

ARIMA(0, 0, 0)x(1, 3, 3, 12)12 - AIC:4082.4307861673196

ARIMA(0, 0, 0)x(1, 4, 0, 12)12 - AIC:1743.9789681950651

ARIMA(0, 0, 0)x(1, 4, 1, 12)12 - AIC:1700.8910794990911

ARIMA(0, 0, 0)x(1, 4, 2, 12)12 - AIC:1509.2923902522532

ARIMA(0, 0, 0)x(1, 4, 3, 12)12 - AIC:3137.538657556742

ARIMA(0, 0, 0)x(1, 5, 0, 12)12 - AIC:1627.7062548591846

ARIMA(0, 0, 0)x(1, 5, 1, 12)12 - AIC:1615.63293780872

ARIMA(0, 0, 0)x(1, 5, 2, 12)12 - AIC:1393.9365058101503

ARIMA(0, 0, 0)x(1, 5, 3, 12)12 - AIC:6111.1167174620505

ARIMA(0, 0, 0)x(2, 0, 0, 12)12 - AIC:2060.84283928228

ARIMA(0, 0, 0)x(2, 0, 1, 12)12 - AIC:2058.410081025888

ARIMA(0, 0, 0)x(2, 0, 2, 12)12 - AIC:2042.536289057727

ARIMA(0, 0, 0)x(2, 0, 3, 12)12 - AIC:1888.922262717593

ARIMA(0, 0, 0)x(2, 0, 4, 12)12 - AIC:3676.2194047651765

ARIMA(0, 0, 0)x(2, 1, 0, 12)12 - AIC:1938.7003387367363

ARIMA(0, 0, 0)x(2, 1, 1, 12)12 - AIC:1917.5239533991883

ARIMA(0, 0, 0)x(2, 1, 2, 12)12 - AIC:1901.3911713416746

ARIMA(0, 0, 0)x(2, 1, 3, 12)12 - AIC:1743.9842021757827

ARIMA(0, 0, 0)x(2, 1, 4, 12)12 - AIC:5434.360053889456

ARIMA(0, 0, 0)x(2, 2, 0, 12)12 - AIC:1774.7045932975018

ARIMA(0, 0, 0)x(2, 2, 1, 12)12 - AIC:1752.058135365849

ARIMA(0, 0, 0)x(2, 2, 2, 12)12 - AIC:1738.8805080641525

ARIMA(0, 0, 0)x(2, 2, 3, 12)12 - AIC:1569.56301020407

ARIMA(0, 0, 0)x(2, 2, 4, 12)12 - AIC:4421.874100957021

ARIMA(0, 0, 0)x(2, 3, 0, 12)12 - AIC:1656.544351378474

ARIMA(0, 0, 0)x(2, 3, 1, 12)12 - AIC:1657.5271639109455

ARIMA(0, 0, 0)x(2, 3, 2, 12)12 - AIC:1633.8994074588572

ARIMA(0, 0, 0)x(2, 3, 3, 12)12 - AIC:7349.103188200823

ARIMA(0, 0, 0)x(2, 4, 0, 12)12 - AIC:1527.192190003337

ARIMA(0, 0, 0)x(2, 4, 1, 12)12 - AIC:1524.5959759097238

ARIMA(0, 0, 0)x(2, 4, 2, 12)12 - AIC:1513.595670371865

ARIMA(0, 0, 0)x(2, 4, 3, 12)12 - AIC:6690.907809310575

ARIMA(0, 0, 0)x(2, 5, 0, 12)12 - AIC:1604.7943856505235

ARIMA(0, 0, 0)x(2, 5, 1, 12)12 - AIC:1510.092862393169

ARIMA(0, 0, 0)x(2, 5, 2, 12)12 - AIC:1582.7418518448148

ARIMA(0, 0, 0)x(2, 5, 3, 12)12 - AIC:5945.632443352298

ARIMA(0, 0, 0)x(3, 0, 0, 12)12 - AIC:1896.8940653637546

ARIMA(0, 0, 0)x(3, 0, 1, 12)12 - AIC:1898.3620182919437

ARIMA(0, 0, 0)x(3, 0, 2, 12)12 - AIC:1900.3065404007484

ARIMA(0, 0, 0)x(3, 0, 3, 12)12 - AIC:1890.6649960602767

ARIMA(0, 0, 0)x(3, 0, 4, 12)12 - AIC:4529.657577561068

ARIMA(0, 0, 0)x(3, 1, 0, 12)12 - AIC:1764.7760541827784

ARIMA(0, 0, 0)x(3, 1, 1, 12)12 - AIC:1750.3485207904625

ARIMA(0, 0, 0)x(3, 1, 2, 12)12 - AIC:1751.8170225077693

ARIMA(0, 0, 0)x(3, 1, 3, 12)12 - AIC:1740.694799077265

ARIMA(0, 0, 0)x(3, 1, 4, 12)12 - AIC:4440.391948635011

ARIMA(0, 0, 0)x(3, 2, 0, 12)12 - AIC:1605.4821073929754

ARIMA(0, 0, 0)x(3, 2, 1, 12)12 - AIC:1587.1229485657564

ARIMA(0, 0, 0)x(3, 2, 2, 12)12 - AIC:1582.7496885183373

ARIMA(0, 0, 0)x(3, 2, 3, 12)12 - AIC:1569.1400039203238

ARIMA(0, 0, 0)x(3, 2, 4, 12)12 - AIC:4146.249870734797

ARIMA(0, 0, 0)x(3, 3, 0, 12)12 - AIC:1484.6462920915692

ARIMA(0, 0, 0)x(3, 3, 1, 12)12 - AIC:1482.4090493969068

ARIMA(0, 0, 0)x(3, 3, 2, 12)12 - AIC:1477.559418808822

ARIMA(0, 0, 0)x(3, 3, 3, 12)12 - AIC:7392.316097819979

ARIMA(0, 0, 0)x(3, 4, 0, 12)12 - AIC:1345.5271364689224

ARIMA(0, 0, 0)x(3, 4, 1, 12)12 - AIC:1343.7998611193534

ARIMA(0, 0, 0)x(3, 4, 2, 12)12 - AIC:1337.6022255370426

ARIMA(0, 0, 0)x(3, 4, 3, 12)12 - AIC:6607.809372756939

ARIMA(0, 0, 0)x(3, 5, 0, 12)12 - AIC:1319.3131400229965

ARIMA(0, 0, 0)x(3, 5, 1, 12)12 - AIC:1340.8117646077803

ARIMA(0, 0, 0)x(3, 5, 2, 12)12 - AIC:1326.399427474987

ARIMA(0, 0, 0)x(3, 5, 3, 12)12 - AIC:nan

ARIMA(0, 0, 0)x(4, 0, 0, 12)12 - AIC:1743.2191672061238

ARIMA(0, 0, 0)x(4, 0, 1, 12)12 - AIC:1743.62972613949

ARIMA(0, 0, 0)x(4, 0, 2, 12)12 - AIC:1741.606311481524

ARIMA(0, 0, 0)x(4, 0, 3, 12)12 - AIC:1739.8626891073254

ARIMA(0, 0, 0)x(4, 0, 4, 12)12 - AIC:4315.659933379159

ARIMA(0, 0, 0)x(4, 1, 0, 12)12 - AIC:1596.1601074426496

ARIMA(0, 0, 0)x(4, 1, 1, 12)12 - AIC:1588.277026853988

ARIMA(0, 0, 0)x(4, 1, 2, 12)12 - AIC:1583.1751839827348

ARIMA(0, 0, 0)x(4, 1, 3, 12)12 - AIC:1584.0288819581247

ARIMA(0, 0, 0)x(4, 1, 4, 12)12 - AIC:4832.257767750175

ARIMA(0, 0, 0)x(4, 2, 0, 12)12 - AIC:1430.8228017251035

ARIMA(0, 0, 0)x(4, 2, 1, 12)12 - AIC:1422.1198024209402

ARIMA(0, 0, 0)x(4, 2, 2, 12)12 - AIC:1417.2616782093505

ARIMA(0, 0, 0)x(4, 2, 3, 12)12 - AIC:1418.8434299316853

ARIMA(0, 0, 0)x(4, 2, 4, 12)12 - AIC:2307.290615037953

ARIMA(0, 0, 0)x(4, 3, 0, 12)12 - AIC:1303.9054427711046

ARIMA(0, 0, 0)x(4, 3, 1, 12)12 - AIC:1299.723953513592

ARIMA(0, 0, 0)x(4, 3, 2, 12)12 - AIC:1299.2722366875114

ARIMA(0, 0, 0)x(4, 3, 3, 12)12 - AIC:nan

ARIMA(0, 0, 0)x(4, 4, 0, 12)12 - AIC:1165.0926465013424

ARIMA(0, 0, 0)x(4, 4, 1, 12)12 - AIC:1157.009089156414

ARIMA(0, 0, 0)x(4, 4, 2, 12)12 - AIC:1157.9225115547242

ARIMA(0, 0, 0)x(4, 4, 3, 12)12 - AIC:5695.502353487742

ARIMA(0, 0, 0)x(4, 5, 0, 12)12 - AIC:1092.8527739768115

ARIMA(0, 0, 0)x(4, 5, 1, 12)12 - AIC:1147.1103177091582

ARIMA(0, 0, 0)x(4, 5, 2, 12)12 - AIC:1131.96328036584

ARIMA(0, 0, 0)x(4, 5, 3, 12)12 - AIC:4787.232051674613

ARIMA(0, 0, 0)x(5, 0, 0, 12)12 - AIC:1572.4397041813822

ARIMA(0, 0, 0)x(5, 0, 1, 12)12 - AIC:1573.7142603984075

ARIMA(0, 0, 0)x(5, 0, 2, 12)12 - AIC:1573.1386847702183

ARIMA(0, 0, 0)x(5, 0, 3, 12)12 - AIC:1572.9677070433313

ARIMA(0, 0, 0)x(5, 0, 4, 12)12 - AIC:1575.5275169433844

ARIMA(0, 0, 0)x(5, 1, 0, 12)12 - AIC:1427.0646362519694

ARIMA(0, 0, 0)x(5, 1, 1, 12)12 - AIC:1417.3737307426504

ARIMA(0, 0, 0)x(5, 1, 2, 12)12 - AIC:1416.5193307070563

ARIMA(0, 0, 0)x(5, 1, 3, 12)12 - AIC:1415.2705241191597

ARIMA(0, 0, 0)x(5, 1, 4, 12)12 - AIC:4216.522851472905

ARIMA(0, 0, 0)x(5, 2, 0, 12)12 - AIC:1270.0426848917218

ARIMA(0, 0, 0)x(5, 2, 1, 12)12 - AIC:1260.495467767696

ARIMA(0, 0, 0)x(5, 2, 2, 12)12 - AIC:1258.2663875556545

ARIMA(0, 0, 0)x(5, 2, 3, 12)12 - AIC:1257.09319154101

ARIMA(0, 0, 0)x(5, 2, 4, 12)12 - AIC:3076.82328753667

ARIMA(0, 0, 0)x(5, 3, 0, 12)12 - AIC:1132.875730160359

ARIMA(0, 0, 0)x(5, 3, 1, 12)12 - AIC:1128.8996805513393

ARIMA(0, 0, 0)x(5, 3, 2, 12)12 - AIC:1125.2329455007653

ARIMA(0, 0, 0)x(5, 3, 3, 12)12 - AIC:2778.5473248527755

ARIMA(0, 0, 0)x(5, 4, 0, 12)12 - AIC:980.428967602725

ARIMA(0, 0, 0)x(5, 4, 1, 12)12 - AIC:975.6525970090585

ARIMA(0, 0, 0)x(5, 4, 2, 12)12 - AIC:977.0228440115694

ARIMA(0, 0, 0)x(5, 4, 3, 12)12 - AIC:4969.53957642822

ARIMA(0, 0, 0)x(5, 5, 0, 12)12 - AIC:860.5630819690787!

ARIMA(0, 0, 0)x(5, 5, 1, 12)12 - AIC:895.3791777866!

ARIMA(0, 0, 0)x(5, 5, 2, 12)12 - AIC:835.8095107351976!

ARIMA(0, 0, 0)x(5, 5, 3, 12)12 - AIC:4648.476382839361!

ARIMA(0, 0, 1)x(0, 0, 0, 12)12 - AIC:2875.770796962325

ARIMA(0, 0, 1)x(0, 0, 1, 12)12 - AIC:2535.849748906826

ARIMA(0, 0, 1)x(0, 0, 2, 12)12 - AIC:2311.6288240715894

ARIMA(0, 0, 1)x(0, 0, 3, 12)12 - AIC:2066.3301945534954

ARIMA(0, 0, 1)x(0, 0, 4, 12)12 - AIC:10346.66455608514

ARIMA(0, 0, 1)x(0, 1, 0, 12)12 - AIC:2223.354561333722

ARIMA(0, 0, 1)x(0, 1, 1, 12)12 - AIC:2058.1079014403394

ARIMA(0, 0, 1)x(0, 1, 2, 12)12 - AIC:1900.407375393962

ARIMA(0, 0, 1)x(0, 1, 3, 12)12 - AIC:1737.8459455627776

ARIMA(0, 0, 1)x(0, 1, 4, 12)12 - AIC:8834.504679576228

ARIMA(0, 0, 1)x(0, 2, 0, 12)12 - AIC:2185.70712370365

ARIMA(0, 0, 1)x(0, 2, 1, 12)12 - AIC:1910.0573833223891

ARIMA(0, 0, 1)x(0, 2, 2, 12)12 - AIC:1725.3554464471167

ARIMA(0, 0, 1)x(0, 2, 3, 12)12 - AIC:1565.1368365875087

ARIMA(0, 0, 1)x(0, 2, 4, 12)12 - AIC:nan

ARIMA(0, 0, 1)x(0, 3, 0, 12)12 - AIC:2098.300781448546

ARIMA(0, 0, 1)x(0, 3, 1, 12)12 - AIC:1824.468843062764

ARIMA(0, 0, 1)x(0, 3, 2, 12)12 - AIC:1642.9362118308543

ARIMA(0, 0, 1)x(0, 3, 3, 12)12 - AIC:4194.27718763392

ARIMA(0, 0, 1)x(0, 4, 0, 12)12 - AIC:1948.0985863968563

ARIMA(0, 0, 1)x(0, 4, 1, 12)12 - AIC:1693.4544251451582

ARIMA(0, 0, 1)x(0, 4, 2, 12)12 - AIC:1502.559433878551

ARIMA(0, 0, 1)x(0, 4, 3, 12)12 - AIC:nan

ARIMA(0, 0, 1)x(0, 5, 0, 12)12 - AIC:1823.7683889610057

ARIMA(0, 0, 1)x(0, 5, 1, 12)12 - AIC:1636.6799616948638

ARIMA(0, 0, 1)x(0, 5, 2, 12)12 - AIC:1386.0191899093231

ARIMA(0, 0, 1)x(0, 5, 3, 12)12 - AIC:6334.608021510445

ARIMA(0, 0, 1)x(1, 0, 0, 12)12 - AIC:2240.6316270528882

ARIMA(0, 0, 1)x(1, 0, 1, 12)12 - AIC:2181.3824066919

ARIMA(0, 0, 1)x(1, 0, 2, 12)12 - AIC:2026.0446153826215

ARIMA(0, 0, 1)x(1, 0, 3, 12)12 - AIC:1873.5248711245672

ARIMA(0, 0, 1)x(1, 0, 4, 12)12 - AIC:4179.660457285426

ARIMA(0, 0, 1)x(1, 1, 0, 12)12 - AIC:2083.1340200377085

ARIMA(0, 0, 1)x(1, 1, 1, 12)12 - AIC:2058.859118206405

ARIMA(0, 0, 1)x(1, 1, 2, 12)12 - AIC:1888.2593223911767

ARIMA(0, 0, 1)x(1, 1, 3, 12)12 - AIC:1739.007922316679

ARIMA(0, 0, 1)x(1, 1, 4, 12)12 - AIC:4405.813370377273

ARIMA(0, 0, 1)x(1, 2, 0, 12)12 - AIC:1980.1808860885549

ARIMA(0, 0, 1)x(1, 2, 1, 12)12 - AIC:1891.633608983368

ARIMA(0, 0, 1)x(1, 2, 2, 12)12 - AIC:1726.8140078683546

ARIMA(0, 0, 1)x(1, 2, 3, 12)12 - AIC:1559.771442742715

ARIMA(0, 0, 1)x(1, 2, 4, 12)12 - AIC:nan

ARIMA(0, 0, 1)x(1, 3, 0, 12)12 - AIC:1927.7033773798282

ARIMA(0, 0, 1)x(1, 3, 1, 12)12 - AIC:1797.6419436667095

ARIMA(0, 0, 1)x(1, 3, 2, 12)12 - AIC:1624.8369868798438

ARIMA(0, 0, 1)x(1, 3, 3, 12)12 - AIC:3045.204361878822

ARIMA(0, 0, 1)x(1, 4, 0, 12)12 - AIC:1740.4485948915826

ARIMA(0, 0, 1)x(1, 4, 1, 12)12 - AIC:1682.2993450988079

ARIMA(0, 0, 1)x(1, 4, 2, 12)12 - AIC:1492.8850676189963

ARIMA(0, 0, 1)x(1, 4, 3, 12)12 - AIC:nan

ARIMA(0, 0, 1)x(1, 5, 0, 12)12 - AIC:1625.298200462046

ARIMA(0, 0, 1)x(1, 5, 1, 12)12 - AIC:1600.3234377295748

ARIMA(0, 0, 1)x(1, 5, 2, 12)12 - AIC:1376.0593916609837

ARIMA(0, 0, 1)x(1, 5, 3, 12)12 - AIC:6223.891595997788

ARIMA(0, 0, 1)x(2, 0, 0, 12)12 - AIC:2058.8505039233587

ARIMA(0, 0, 1)x(2, 0, 1, 12)12 - AIC:2055.194574417518

ARIMA(0, 0, 1)x(2, 0, 2, 12)12 - AIC:2025.9174241956273

ARIMA(0, 0, 1)x(2, 0, 3, 12)12 - AIC:1873.7188624170033

ARIMA(0, 0, 1)x(2, 0, 4, 12)12 - AIC:5007.605448141984

ARIMA(0, 0, 1)x(2, 1, 0, 12)12 - AIC:1928.5108932467053

ARIMA(0, 0, 1)x(2, 1, 1, 12)12 - AIC:1915.916890928522

ARIMA(0, 0, 1)x(2, 1, 2, 12)12 - AIC:1888.5387109164117

ARIMA(0, 0, 1)x(2, 1, 3, 12)12 - AIC:1740.9727228684806

ARIMA(0, 0, 1)x(2, 1, 4, 12)12 - AIC:4646.507868321056

ARIMA(0, 0, 1)x(2, 2, 0, 12)12 - AIC:1773.8339825418807

ARIMA(0, 0, 1)x(2, 2, 1, 12)12 - AIC:1751.7680181562548

ARIMA(0, 0, 1)x(2, 2, 2, 12)12 - AIC:1725.1254694463785

ARIMA(0, 0, 1)x(2, 2, 3, 12)12 - AIC:1556.935582675122

ARIMA(0, 0, 1)x(2, 2, 4, 12)12 - AIC:3412.6913497136984

ARIMA(0, 0, 1)x(2, 3, 0, 12)12 - AIC:1664.3881360988503

ARIMA(0, 0, 1)x(2, 3, 1, 12)12 - AIC:1746.5108702866587

ARIMA(0, 0, 1)x(2, 3, 2, 12)12 - AIC:1717.2983887271944

ARIMA(0, 0, 1)x(2, 3, 3, 12)12 - AIC:7772.528841423754

ARIMA(0, 0, 1)x(2, 4, 0, 12)12 - AIC:1526.7308693910418

ARIMA(0, 0, 1)x(2, 4, 1, 12)12 - AIC:1679.8221428160202

ARIMA(0, 0, 1)x(2, 4, 2, 12)12 - AIC:1595.2658290533786

ARIMA(0, 0, 1)x(2, 4, 3, 12)12 - AIC:6804.584026661992

ARIMA(0, 0, 1)x(2, 5, 0, 12)12 - AIC:1407.8521515259017

ARIMA(0, 0, 1)x(2, 5, 1, 12)12 - AIC:1558.4798499460314

ARIMA(0, 0, 1)x(2, 5, 2, 12)12 - AIC:1751.5183114801337

ARIMA(0, 0, 1)x(2, 5, 3, 12)12 - AIC:6103.418225026621

ARIMA(0, 0, 1)x(3, 0, 0, 12)12 - AIC:1895.1940799263762

ARIMA(0, 0, 1)x(3, 0, 1, 12)12 - AIC:1897.0497462687474

ARIMA(0, 0, 1)x(3, 0, 2, 12)12 - AIC:1899.6240104752435

ARIMA(0, 0, 1)x(3, 0, 3, 12)12 - AIC:1902.3130175969175

ARIMA(0, 0, 1)x(3, 0, 4, 12)12 - AIC:5061.0739335469825

ARIMA(0, 0, 1)x(3, 1, 0, 12)12 - AIC:1760.8404857226315

ARIMA(0, 0, 1)x(3, 1, 1, 12)12 - AIC:1750.1145816414846

ARIMA(0, 0, 1)x(3, 1, 2, 12)12 - AIC:1751.2411692913206

ARIMA(0, 0, 1)x(3, 1, 3, 12)12 - AIC:1727.1621322984934

ARIMA(0, 0, 1)x(3, 1, 4, 12)12 - AIC:4665.466267667826

ARIMA(0, 0, 1)x(3, 2, 0, 12)12 - AIC:1604.8002525408344

ARIMA(0, 0, 1)x(3, 2, 1, 12)12 - AIC:1587.1630319713358

ARIMA(0, 0, 1)x(3, 2, 2, 12)12 - AIC:1583.6557686344981

ARIMA(0, 0, 1)x(3, 2, 3, 12)12 - AIC:1558.4480483163497

ARIMA(0, 0, 1)x(3, 2, 4, 12)12 - AIC:4223.077161567677

ARIMA(0, 0, 1)x(3, 3, 0, 12)12 - AIC:1562.6388334935784

ARIMA(0, 0, 1)x(3, 3, 1, 12)12 - AIC:1480.8620688152164

ARIMA(0, 0, 1)x(3, 3, 2, 12)12 - AIC:1565.6088728219554

ARIMA(0, 0, 1)x(3, 3, 3, 12)12 - AIC:nan

ARIMA(0, 0, 1)x(3, 4, 0, 12)12 - AIC:1343.4657193918983

ARIMA(0, 0, 1)x(3, 4, 1, 12)12 - AIC:1447.0448193882828

ARIMA(0, 0, 1)x(3, 4, 2, 12)12 - AIC:1615.4647721011206

ARIMA(0, 0, 1)x(3, 4, 3, 12)12 - AIC:6740.495625809341

ARIMA(0, 0, 1)x(3, 5, 0, 12)12 - AIC:1315.3420714916974

ARIMA(0, 0, 1)x(3, 5, 1, 12)12 - AIC:1554.887248070479

ARIMA(0, 0, 1)x(3, 5, 2, 12)12 - AIC:1556.7329855910443

ARIMA(0, 0, 1)x(3, 5, 3, 12)12 - AIC:nan

ARIMA(0, 0, 1)x(4, 0, 0, 12)12 - AIC:1741.785359552091

ARIMA(0, 0, 1)x(4, 0, 1, 12)12 - AIC:1743.066545545466

ARIMA(0, 0, 1)x(4, 0, 2, 12)12 - AIC:1752.6947662332384

ARIMA(0, 0, 1)x(4, 0, 3, 12)12 - AIC:1893.4282852853385

ARIMA(0, 0, 1)x(4, 0, 4, 12)12 - AIC:4136.2670647337845

ARIMA(0, 0, 1)x(4, 1, 0, 12)12 - AIC:1593.1614006574466

ARIMA(0, 0, 1)x(4, 1, 1, 12)12 - AIC:1588.5022459440768

ARIMA(0, 0, 1)x(4, 1, 2, 12)12 - AIC:1583.2666353272862

ARIMA(0, 0, 1)x(4, 1, 3, 12)12 - AIC:1584.4336725390574

ARIMA(0, 0, 1)x(4, 1, 4, 12)12 - AIC:4791.653716708593

ARIMA(0, 0, 1)x(4, 2, 0, 12)12 - AIC:1431.2931264345434

ARIMA(0, 0, 1)x(4, 2, 1, 12)12 - AIC:1422.9784775870564

ARIMA(0, 0, 1)x(4, 2, 2, 12)12 - AIC:1418.9610835700316

ARIMA(0, 0, 1)x(4, 2, 3, 12)12 - AIC:1420.8168288356549

ARIMA(0, 0, 1)x(4, 2, 4, 12)12 - AIC:4273.896066099044

ARIMA(0, 0, 1)x(4, 3, 0, 12)12 - AIC:1309.2776373708755

ARIMA(0, 0, 1)x(4, 3, 1, 12)12 - AIC:1298.58441991864

ARIMA(0, 0, 1)x(4, 3, 2, 12)12 - AIC:1285.176059871537

ARIMA(0, 0, 1)x(4, 3, 3, 12)12 - AIC:nan

ARIMA(0, 0, 1)x(4, 4, 0, 12)12 - AIC:1238.955635271784

ARIMA(0, 0, 1)x(4, 4, 1, 12)12 - AIC:1396.7001507880705

ARIMA(0, 0, 1)x(4, 4, 2, 12)12 - AIC:1403.283863443594

ARIMA(0, 0, 1)x(4, 4, 3, 12)12 - AIC:nan

ARIMA(0, 0, 1)x(4, 5, 0, 12)12 - AIC:1314.9346135806818

ARIMA(0, 0, 1)x(4, 5, 1, 12)12 - AIC:1319.244797484179

ARIMA(0, 0, 1)x(4, 5, 2, 12)12 - AIC:1321.2869805554901

ARIMA(0, 0, 1)x(4, 5, 3, 12)12 - AIC:4955.156330983928

ARIMA(0, 0, 1)x(5, 0, 0, 12)12 - AIC:1571.8535880804945

ARIMA(0, 0, 1)x(5, 0, 1, 12)12 - AIC:1619.1857266498644

ARIMA(0, 0, 1)x(5, 0, 2, 12)12 - AIC:1660.2501874317634

ARIMA(0, 0, 1)x(5, 0, 3, 12)12 - AIC:1797.5447774916304

ARIMA(0, 0, 1)x(5, 0, 4, 12)12 - AIC:1792.595215705958

ARIMA(0, 0, 1)x(5, 1, 0, 12)12 - AIC:1426.6509740463423

ARIMA(0, 0, 1)x(5, 1, 1, 12)12 - AIC:1418.6976404254135

ARIMA(0, 0, 1)x(5, 1, 2, 12)12 - AIC:1418.4700897300586

ARIMA(0, 0, 1)x(5, 1, 3, 12)12 - AIC:1417.1771860418303

ARIMA(0, 0, 1)x(5, 1, 4, 12)12 - AIC:3259.349600282357

ARIMA(0, 0, 1)x(5, 2, 0, 12)12 - AIC:1269.5206447277765

ARIMA(0, 0, 1)x(5, 2, 1, 12)12 - AIC:1260.8168653265336

ARIMA(0, 0, 1)x(5, 2, 2, 12)12 - AIC:1272.9585290045152

ARIMA(0, 0, 1)x(5, 2, 3, 12)12 - AIC:1263.5510784514454

ARIMA(0, 0, 1)x(5, 2, 4, 12)12 - AIC:7134.732379879287

ARIMA(0, 0, 1)x(5, 3, 0, 12)12 - AIC:1128.7008302283818

ARIMA(0, 0, 1)x(5, 3, 1, 12)12 - AIC:1124.453111206399

ARIMA(0, 0, 1)x(5, 3, 2, 12)12 - AIC:1125.1480388556915

ARIMA(0, 0, 1)x(5, 3, 3, 12)12 - AIC:5822.744105115901

ARIMA(0, 0, 1)x(5, 4, 0, 12)12 - AIC:1027.8647677848849

ARIMA(0, 0, 1)x(5, 4, 1, 12)12 - AIC:1189.3614678428382

ARIMA(0, 0, 1)x(5, 4, 2, 12)12 - AIC:1191.7063319585945

ARIMA(0, 0, 1)x(5, 4, 3, 12)12 - AIC:5147.2984189340095

ARIMA(0, 0, 1)x(5, 5, 0, 12)12 - AIC:1081.9186580029555

ARIMA(0, 0, 1)x(5, 5, 1, 12)12 - AIC:1083.8349753564003

ARIMA(0, 0, 1)x(5, 5, 2, 12)12 - AIC:1085.8528659610647

ARIMA(0, 0, 1)x(5, 5, 3, 12)12 - AIC:nan

ARIMA(0, 0, 2)x(0, 0, 0, 12)12 - AIC:2758.9525231220396

ARIMA(0, 0, 2)x(0, 0, 1, 12)12 - AIC:2460.889187562553

ARIMA(0, 0, 2)x(0, 0, 2, 12)12 - AIC:2243.084343750064

ARIMA(0, 0, 2)x(0, 0, 3, 12)12 - AIC:2021.792453089356

ARIMA(0, 0, 2)x(0, 0, 4, 12)12 - AIC:9855.03251374561

ARIMA(0, 0, 2)x(0, 1, 0, 12)12 - AIC:2209.071802686007

ARIMA(0, 0, 2)x(0, 1, 1, 12)12 - AIC:2041.125882025242

ARIMA(0, 0, 2)x(0, 1, 2, 12)12 - AIC:1883.9492525645683

ARIMA(0, 0, 2)x(0, 1, 3, 12)12 - AIC:1723.2926859676782

ARIMA(0, 0, 2)x(0, 1, 4, 12)12 - AIC:8396.875310966412

ARIMA(0, 0, 2)x(0, 2, 0, 12)12 - AIC:2173.6037641998846

ARIMA(0, 0, 2)x(0, 2, 1, 12)12 - AIC:1898.6653862712433

ARIMA(0, 0, 2)x(0, 2, 2, 12)12 - AIC:1713.261045099877

ARIMA(0, 0, 2)x(0, 2, 3, 12)12 - AIC:1552.9758523954931

ARIMA(0, 0, 2)x(0, 2, 4, 12)12 - AIC:nan

ARIMA(0, 0, 2)x(0, 3, 0, 12)12 - AIC:2085.4398963546455

ARIMA(0, 0, 2)x(0, 3, 1, 12)12 - AIC:1812.6557752540682

ARIMA(0, 0, 2)x(0, 3, 2, 12)12 - AIC:1630.8785998906528

ARIMA(0, 0, 2)x(0, 3, 3, 12)12 - AIC:4397.521470515771

ARIMA(0, 0, 2)x(0, 4, 0, 12)12 - AIC:1934.8398094822578

ARIMA(0, 0, 2)x(0, 4, 1, 12)12 - AIC:1680.8969284876428

ARIMA(0, 0, 2)x(0, 4, 2, 12)12 - AIC:1490.4253510111307

ARIMA(0, 0, 2)x(0, 4, 3, 12)12 - AIC:nan

ARIMA(0, 0, 2)x(0, 5, 0, 12)12 - AIC:1810.0740809754686

ARIMA(0, 0, 2)x(0, 5, 1, 12)12 - AIC:1565.2580237435795

ARIMA(0, 0, 2)x(0, 5, 2, 12)12 - AIC:1368.5051379453157

ARIMA(0, 0, 2)x(0, 5, 3, 12)12 - AIC:6253.890436818251

ARIMA(0, 0, 2)x(1, 0, 0, 12)12 - AIC:2243.7383489080103

ARIMA(0, 0, 2)x(1, 0, 1, 12)12 - AIC:2216.106806034434

ARIMA(0, 0, 2)x(1, 0, 2, 12)12 - AIC:2015.172826597504

ARIMA(0, 0, 2)x(1, 0, 3, 12)12 - AIC:1860.75994807099

ARIMA(0, 0, 2)x(1, 0, 4, 12)12 - AIC:4255.222568044902

ARIMA(0, 0, 2)x(1, 1, 0, 12)12 - AIC:2078.997890336065

ARIMA(0, 0, 2)x(1, 1, 1, 12)12 - AIC:2041.593319892841

ARIMA(0, 0, 2)x(1, 1, 2, 12)12 - AIC:1876.256451115376

ARIMA(0, 0, 2)x(1, 1, 3, 12)12 - AIC:1723.5879203100951

ARIMA(0, 0, 2)x(1, 1, 4, 12)12 - AIC:4643.746486888019

ARIMA(0, 0, 2)x(1, 2, 0, 12)12 - AIC:1981.718568818736

ARIMA(0, 0, 2)x(1, 2, 1, 12)12 - AIC:1879.1225770765068

ARIMA(0, 0, 2)x(1, 2, 2, 12)12 - AIC:1714.6933292121269

ARIMA(0, 0, 2)x(1, 2, 3, 12)12 - AIC:1548.2254817657229

ARIMA(0, 0, 2)x(1, 2, 4, 12)12 - AIC:4123.234967881153

ARIMA(0, 0, 2)x(1, 3, 0, 12)12 - AIC:1847.7628139072572

ARIMA(0, 0, 2)x(1, 3, 1, 12)12 - AIC:1782.5695065221798

ARIMA(0, 0, 2)x(1, 3, 2, 12)12 - AIC:1612.150645092328

ARIMA(0, 0, 2)x(1, 3, 3, 12)12 - AIC:3471.602441484685

ARIMA(0, 0, 2)x(1, 4, 0, 12)12 - AIC:1772.1186334123622

ARIMA(0, 0, 2)x(1, 4, 1, 12)12 - AIC:1670.0932062587285

ARIMA(0, 0, 2)x(1, 4, 2, 12)12 - AIC:1480.0323192051644

ARIMA(0, 0, 2)x(1, 4, 3, 12)12 - AIC:nan

ARIMA(0, 0, 2)x(1, 5, 0, 12)12 - AIC:1627.2308461756

ARIMA(0, 0, 2)x(1, 5, 1, 12)12 - AIC:1558.2878108220675

ARIMA(0, 0, 2)x(1, 5, 2, 12)12 - AIC:1366.757667691622

ARIMA(0, 0, 2)x(1, 5, 3, 12)12 - AIC:6364.1748903012785

ARIMA(0, 0, 2)x(2, 0, 0, 12)12 - AIC:2058.8699067740245

ARIMA(0, 0, 2)x(2, 0, 1, 12)12 - AIC:2054.3590679528343

ARIMA(0, 0, 2)x(2, 0, 2, 12)12 - AIC:2020.5876007840047

ARIMA(0, 0, 2)x(2, 0, 3, 12)12 - AIC:1871.094231396408

ARIMA(0, 0, 2)x(2, 0, 4, 12)12 - AIC:4329.434333376736

ARIMA(0, 0, 2)x(2, 1, 0, 12)12 - AIC:1924.2961140498346

ARIMA(0, 0, 2)x(2, 1, 1, 12)12 - AIC:1916.441184104081

ARIMA(0, 0, 2)x(2, 1, 2, 12)12 - AIC:1876.4272702066799

ARIMA(0, 0, 2)x(2, 1, 3, 12)12 - AIC:1725.5355206918628

ARIMA(0, 0, 2)x(2, 1, 4, 12)12 - AIC:4194.17010829505

ARIMA(0, 0, 2)x(2, 2, 0, 12)12 - AIC:1774.1276695150314

ARIMA(0, 0, 2)x(2, 2, 1, 12)12 - AIC:1752.4222812596556

ARIMA(0, 0, 2)x(2, 2, 2, 12)12 - AIC:1712.4946454098736

ARIMA(0, 0, 2)x(2, 2, 3, 12)12 - AIC:1544.1695258184081

ARIMA(0, 0, 2)x(2, 2, 4, 12)12 - AIC:8220.639889830753

ARIMA(0, 0, 2)x(2, 3, 0, 12)12 - AIC:1745.965791521511

ARIMA(0, 0, 2)x(2, 3, 1, 12)12 - AIC:1747.8685287512237

ARIMA(0, 0, 2)x(2, 3, 2, 12)12 - AIC:1703.4516167503307

ARIMA(0, 0, 2)x(2, 3, 3, 12)12 - AIC:7367.238148457193

ARIMA(0, 0, 2)x(2, 4, 0, 12)12 - AIC:1528.9653024194722

ARIMA(0, 0, 2)x(2, 4, 1, 12)12 - AIC:1521.368166446411

ARIMA(0, 0, 2)x(2, 4, 2, 12)12 - AIC:1777.9202099652466

ARIMA(0, 0, 2)x(2, 4, 3, 12)12 - AIC:6729.418421414852

ARIMA(0, 0, 2)x(2, 5, 0, 12)12 - AIC:1597.433335421008

ARIMA(0, 0, 2)x(2, 5, 1, 12)12 - AIC:1691.9720131236559

ARIMA(0, 0, 2)x(2, 5, 2, 12)12 - AIC:1735.4230120757304

ARIMA(0, 0, 2)x(2, 5, 3, 12)12 - AIC:nan

ARIMA(0, 0, 2)x(3, 0, 0, 12)12 - AIC:1895.134063335795

ARIMA(0, 0, 2)x(3, 0, 1, 12)12 - AIC:1902.9314207831858

ARIMA(0, 0, 2)x(3, 0, 2, 12)12 - AIC:1899.0593533555138

ARIMA(0, 0, 2)x(3, 0, 3, 12)12 - AIC:1916.0404813612322

ARIMA(0, 0, 2)x(3, 0, 4, 12)12 - AIC:3507.4356805338166

ARIMA(0, 0, 2)x(3, 1, 0, 12)12 - AIC:1759.4702728051448

ARIMA(0, 0, 2)x(3, 1, 1, 12)12 - AIC:1750.9712225936653

ARIMA(0, 0, 2)x(3, 1, 2, 12)12 - AIC:1751.853920688666

ARIMA(0, 0, 2)x(3, 1, 3, 12)12 - AIC:1714.8877293342439

ARIMA(0, 0, 2)x(3, 1, 4, 12)12 - AIC:4502.842003810322

ARIMA(0, 0, 2)x(3, 2, 0, 12)12 - AIC:1605.3081771595062

ARIMA(0, 0, 2)x(3, 2, 1, 12)12 - AIC:1587.9724169241933

ARIMA(0, 0, 2)x(3, 2, 2, 12)12 - AIC:1584.062977888008

ARIMA(0, 0, 2)x(3, 2, 3, 12)12 - AIC:1544.0856655523862

ARIMA(0, 0, 2)x(3, 2, 4, 12)12 - AIC:4020.8182231678597

ARIMA(0, 0, 2)x(3, 3, 0, 12)12 - AIC:1563.9626167707795

ARIMA(0, 0, 2)x(3, 3, 1, 12)12 - AIC:1482.3442830002843

ARIMA(0, 0, 2)x(3, 3, 2, 12)12 - AIC:1566.9281124170093

ARIMA(0, 0, 2)x(3, 3, 3, 12)12 - AIC:nan

ARIMA(0, 0, 2)x(3, 4, 0, 12)12 - AIC:1483.22862234645

ARIMA(0, 0, 2)x(3, 4, 1, 12)12 - AIC:1596.2353399037415

ARIMA(0, 0, 2)x(3, 4, 2, 12)12 - AIC:1617.5312151226308

ARIMA(0, 0, 2)x(3, 4, 3, 12)12 - AIC:6666.023453568476

ARIMA(0, 0, 2)x(3, 5, 0, 12)12 - AIC:1551.3668623726578

ARIMA(0, 0, 2)x(3, 5, 1, 12)12 - AIC:1557.376786752395

ARIMA(0, 0, 2)x(3, 5, 2, 12)12 - AIC:1559.2597402304575

ARIMA(0, 0, 2)x(3, 5, 3, 12)12 - AIC:nan

ARIMA(0, 0, 2)x(4, 0, 0, 12)12 - AIC:1741.9102079197205

ARIMA(0, 0, 2)x(4, 0, 1, 12)12 - AIC:1756.0536356285795

ARIMA(0, 0, 2)x(4, 0, 2, 12)12 - AIC:2010.7398942295358

ARIMA(0, 0, 2)x(4, 0, 3, 12)12 - AIC:1836.298689132558

ARIMA(0, 0, 2)x(4, 0, 4, 12)12 - AIC:4292.096561163355

ARIMA(0, 0, 2)x(4, 1, 0, 12)12 - AIC:1592.3034207682688

ARIMA(0, 0, 2)x(4, 1, 1, 12)12 - AIC:1589.779244778027

ARIMA(0, 0, 2)x(4, 1, 2, 12)12 - AIC:1583.4728531546714

ARIMA(0, 0, 2)x(4, 1, 3, 12)12 - AIC:1584.2903816714925

ARIMA(0, 0, 2)x(4, 1, 4, 12)12 - AIC:4621.830579094837

ARIMA(0, 0, 2)x(4, 2, 0, 12)12 - AIC:1431.8614562048986

ARIMA(0, 0, 2)x(4, 2, 1, 12)12 - AIC:1424.0177264285992

ARIMA(0, 0, 2)x(4, 2, 2, 12)12 - AIC:1419.38275739656

ARIMA(0, 0, 2)x(4, 2, 3, 12)12 - AIC:1420.8129296393288

ARIMA(0, 0, 2)x(4, 2, 4, 12)12 - AIC:4073.690501681953

ARIMA(0, 0, 2)x(4, 3, 0, 12)12 - AIC:1382.4701728861537

ARIMA(0, 0, 2)x(4, 3, 1, 12)12 - AIC:1300.0663023409222

ARIMA(0, 0, 2)x(4, 3, 2, 12)12 - AIC:1298.4422898453417

ARIMA(0, 0, 2)x(4, 3, 3, 12)12 - AIC:nan

ARIMA(0, 0, 2)x(4, 4, 0, 12)12 - AIC:1372.3894292006075

ARIMA(0, 0, 2)x(4, 4, 1, 12)12 - AIC:1402.8792358581593

ARIMA(0, 0, 2)x(4, 4, 2, 12)12 - AIC:1405.2462999863592

ARIMA(0, 0, 2)x(4, 4, 3, 12)12 - AIC:nan

ARIMA(0, 0, 2)x(4, 5, 0, 12)12 - AIC:1319.8326196416906

ARIMA(0, 0, 2)x(4, 5, 1, 12)12 - AIC:1321.5090700084056

ARIMA(0, 0, 2)x(4, 5, 2, 12)12 - AIC:1323.644409592879

ARIMA(0, 0, 2)x(4, 5, 3, 12)12 - AIC:4957.5916869167795

ARIMA(0, 0, 2)x(5, 0, 0, 12)12 - AIC:1679.7393321486913

ARIMA(0, 0, 2)x(5, 0, 1, 12)12 - AIC:1741.86356099695

ARIMA(0, 0, 2)x(5, 0, 2, 12)12 - AIC:1615.9047854199368

ARIMA(0, 0, 2)x(5, 0, 3, 12)12 - AIC:1848.8415035563696

ARIMA(0, 0, 2)x(5, 0, 4, 12)12 - AIC:1915.4937777835016

ARIMA(0, 0, 2)x(5, 1, 0, 12)12 - AIC:1426.8667044430922

ARIMA(0, 0, 2)x(5, 1, 1, 12)12 - AIC:1420.3061407633534

ARIMA(0, 0, 2)x(5, 1, 2, 12)12 - AIC:1419.1357892370772

ARIMA(0, 0, 2)x(5, 1, 3, 12)12 - AIC:1418.9813627663068

ARIMA(0, 0, 2)x(5, 1, 4, 12)12 - AIC:4359.24249569511

ARIMA(0, 0, 2)x(5, 2, 0, 12)12 - AIC:1270.485812208919

ARIMA(0, 0, 2)x(5, 2, 1, 12)12 - AIC:1262.178679952183

ARIMA(0, 0, 2)x(5, 2, 2, 12)12 - AIC:1263.8100274089534

ARIMA(0, 0, 2)x(5, 2, 3, 12)12 - AIC:1265.9150834149038

ARIMA(0, 0, 2)x(5, 2, 4, 12)12 - AIC:nan

ARIMA(0, 0, 2)x(5, 3, 0, 12)12 - AIC:1127.8672254289118

ARIMA(0, 0, 2)x(5, 3, 1, 12)12 - AIC:1126.9691237602701

ARIMA(0, 0, 2)x(5, 3, 2, 12)12 - AIC:1126.4564192589312

ARIMA(0, 0, 2)x(5, 3, 3, 12)12 - AIC:5825.345098007837

ARIMA(0, 0, 2)x(5, 4, 0, 12)12 - AIC:1189.2211641896833

ARIMA(0, 0, 2)x(5, 4, 1, 12)12 - AIC:1191.7160223595747

ARIMA(0, 0, 2)x(5, 4, 2, 12)12 - AIC:1193.6074206045655

ARIMA(0, 0, 2)x(5, 4, 3, 12)12 - AIC:5149.240453711252

ARIMA(0, 0, 2)x(5, 5, 0, 12)12 - AIC:1084.2850887677641

ARIMA(0, 0, 2)x(5, 5, 1, 12)12 - AIC:1086.1865380971665

ARIMA(0, 0, 2)x(5, 5, 2, 12)12 - AIC:1088.3453868585977

ARIMA(0, 0, 2)x(5, 5, 3, 12)12 - AIC:nan

ARIMA(0, 0, 3)x(0, 0, 0, 12)12 - AIC:2756.372669447016

ARIMA(0, 0, 3)x(0, 0, 1, 12)12 - AIC:2412.4051249097047

ARIMA(0, 0, 3)x(0, 0, 2, 12)12 - AIC:2207.762920320985

ARIMA(0, 0, 3)x(0, 0, 3, 12)12 - AIC:2005.6350141140524

ARIMA(0, 0, 3)x(0, 0, 4, 12)12 - AIC:9776.497135273657

ARIMA(0, 0, 3)x(0, 1, 0, 12)12 - AIC:2197.772465569281

ARIMA(0, 0, 3)x(0, 1, 1, 12)12 - AIC:2028.2812307213312

ARIMA(0, 0, 3)x(0, 1, 2, 12)12 - AIC:1870.9854659713144

ARIMA(0, 0, 3)x(0, 1, 3, 12)12 - AIC:1710.8743718741935

ARIMA(0, 0, 3)x(0, 1, 4, 12)12 - AIC:8923.224609265162

ARIMA(0, 0, 3)x(0, 2, 0, 12)12 - AIC:2161.0008388136953

ARIMA(0, 0, 3)x(0, 2, 1, 12)12 - AIC:1887.1610627769765

ARIMA(0, 0, 3)x(0, 2, 2, 12)12 - AIC:1702.6260036940346

ARIMA(0, 0, 3)x(0, 2, 3, 12)12 - AIC:1541.5098039539398

ARIMA(0, 0, 3)x(0, 2, 4, 12)12 - AIC:8605.512437684598

ARIMA(0, 0, 3)x(0, 3, 0, 12)12 - AIC:2070.0137920288767

ARIMA(0, 0, 3)x(0, 3, 1, 12)12 - AIC:1799.7609769110545

ARIMA(0, 0, 3)x(0, 3, 2, 12)12 - AIC:1617.2492692184596

ARIMA(0, 0, 3)x(0, 3, 3, 12)12 - AIC:3809.3168619385983

ARIMA(0, 0, 3)x(0, 4, 0, 12)12 - AIC:1921.3925432862316

ARIMA(0, 0, 3)x(0, 4, 1, 12)12 - AIC:1668.277016495506

ARIMA(0, 0, 3)x(0, 4, 2, 12)12 - AIC:1538.868107273237

ARIMA(0, 0, 3)x(0, 4, 3, 12)12 - AIC:nan

ARIMA(0, 0, 3)x(0, 5, 0, 12)12 - AIC:1828.93678738745

ARIMA(0, 0, 3)x(0, 5, 1, 12)12 - AIC:1551.7232548735662

ARIMA(0, 0, 3)x(0, 5, 2, 12)12 - AIC:1374.809704006811

ARIMA(0, 0, 3)x(0, 5, 3, 12)12 - AIC:6170.902851093867

ARIMA(0, 0, 3)x(1, 0, 0, 12)12 - AIC:2244.187971217374

ARIMA(0, 0, 3)x(1, 0, 1, 12)12 - AIC:2201.40134981331

ARIMA(0, 0, 3)x(1, 0, 2, 12)12 - AIC:2009.94231872009

ARIMA(0, 0, 3)x(1, 0, 3, 12)12 - AIC:1915.8807087749349

ARIMA(0, 0, 3)x(1, 0, 4, 12)12 - AIC:4128.576802061028

ARIMA(0, 0, 3)x(1, 1, 0, 12)12 - AIC:2079.0418460751243

ARIMA(0, 0, 3)x(1, 1, 1, 12)12 - AIC:2028.6136321909328

ARIMA(0, 0, 3)x(1, 1, 2, 12)12 - AIC:1870.6273099991286

ARIMA(0, 0, 3)x(1, 1, 3, 12)12 - AIC:1710.9697996740558

ARIMA(0, 0, 3)x(1, 1, 4, 12)12 - AIC:5300.543895327253

ARIMA(0, 0, 3)x(1, 2, 0, 12)12 - AIC:1983.6412339327358

ARIMA(0, 0, 3)x(1, 2, 1, 12)12 - AIC:1867.611971651807

ARIMA(0, 0, 3)x(1, 2, 2, 12)12 - AIC:1704.0233047618735

ARIMA(0, 0, 3)x(1, 2, 3, 12)12 - AIC:1537.6060490576385

ARIMA(0, 0, 3)x(1, 2, 4, 12)12 - AIC:4048.4991752169944

ARIMA(0, 0, 3)x(1, 3, 0, 12)12 - AIC:1849.714716115089

ARIMA(0, 0, 3)x(1, 3, 1, 12)12 - AIC:1769.476721185553

ARIMA(0, 0, 3)x(1, 3, 2, 12)12 - AIC:1601.539999484266

ARIMA(0, 0, 3)x(1, 3, 3, 12)12 - AIC:3932.693973874711

ARIMA(0, 0, 3)x(1, 4, 0, 12)12 - AIC:1744.0175354274652

ARIMA(0, 0, 3)x(1, 4, 1, 12)12 - AIC:1654.7182352462746

ARIMA(0, 0, 3)x(1, 4, 2, 12)12 - AIC:1467.4814505270149

ARIMA(0, 0, 3)x(1, 4, 3, 12)12 - AIC:6755.156279578643

ARIMA(0, 0, 3)x(1, 5, 0, 12)12 - AIC:1628.6047279015008

ARIMA(0, 0, 3)x(1, 5, 1, 12)12 - AIC:1544.5482315391075

ARIMA(0, 0, 3)x(1, 5, 2, 12)12 - AIC:1348.1530852543387

ARIMA(0, 0, 3)x(1, 5, 3, 12)12 - AIC:6063.229989420793

ARIMA(0, 0, 3)x(2, 0, 0, 12)12 - AIC:2060.563435276681

ARIMA(0, 0, 3)x(2, 0, 1, 12)12 - AIC:2074.124870357746

ARIMA(0, 0, 3)x(2, 0, 2, 12)12 - AIC:2001.402125263335

ARIMA(0, 0, 3)x(2, 0, 3, 12)12 - AIC:1857.0865420559262

ARIMA(0, 0, 3)x(2, 0, 4, 12)12 - AIC:4395.9375634460785

ARIMA(0, 0, 3)x(2, 1, 0, 12)12 - AIC:1924.1417048701833

ARIMA(0, 0, 3)x(2, 1, 1, 12)12 - AIC:1918.2232059456542

ARIMA(0, 0, 3)x(2, 1, 2, 12)12 - AIC:1865.3535817437182

ARIMA(0, 0, 3)x(2, 1, 3, 12)12 - AIC:1713.474167046822

ARIMA(0, 0, 3)x(2, 1, 4, 12)12 - AIC:5350.31782554301

ARIMA(0, 0, 3)x(2, 2, 0, 12)12 - AIC:1775.7398738264942

ARIMA(0, 0, 3)x(2, 2, 1, 12)12 - AIC:1754.230788255494

ARIMA(0, 0, 3)x(2, 2, 2, 12)12 - AIC:1701.1573955789568

ARIMA(0, 0, 3)x(2, 2, 3, 12)12 - AIC:1533.1261421186623

ARIMA(0, 0, 3)x(2, 2, 4, 12)12 - AIC:nan

ARIMA(0, 0, 3)x(2, 3, 0, 12)12 - AIC:1746.4046401928379

ARIMA(0, 0, 3)x(2, 3, 1, 12)12 - AIC:1748.204964552259

ARIMA(0, 0, 3)x(2, 3, 2, 12)12 - AIC:1688.6740998445205

ARIMA(0, 0, 3)x(2, 3, 3, 12)12 - AIC:7293.211446106928

ARIMA(0, 0, 3)x(2, 4, 0, 12)12 - AIC:1530.221348829036

ARIMA(0, 0, 3)x(2, 4, 1, 12)12 - AIC:1694.2096722775486

ARIMA(0, 0, 3)x(2, 4, 2, 12)12 - AIC:1760.3509505680815

ARIMA(0, 0, 3)x(2, 4, 3, 12)12 - AIC:6652.536305609894

ARIMA(0, 0, 3)x(2, 5, 0, 12)12 - AIC:1790.5282447135573

ARIMA(0, 0, 3)x(2, 5, 1, 12)12 - AIC:1793.4758234495055

ARIMA(0, 0, 3)x(2, 5, 2, 12)12 - AIC:1715.835410262401

ARIMA(0, 0, 3)x(2, 5, 3, 12)12 - AIC:5945.899791430889

ARIMA(0, 0, 3)x(3, 0, 0, 12)12 - AIC:1896.5531549416164

ARIMA(0, 0, 3)x(3, 0, 1, 12)12 - AIC:1931.336817063762

ARIMA(0, 0, 3)x(3, 0, 2, 12)12 - AIC:1950.3002450694662

ARIMA(0, 0, 3)x(3, 0, 3, 12)12 - AIC:2058.301736479933

ARIMA(0, 0, 3)x(3, 0, 4, 12)12 - AIC:4322.4656735432845

ARIMA(0, 0, 3)x(3, 1, 0, 12)12 - AIC:1760.124101735946

ARIMA(0, 0, 3)x(3, 1, 1, 12)12 - AIC:1752.7995864760715

ARIMA(0, 0, 3)x(3, 1, 2, 12)12 - AIC:1753.5326455979468

ARIMA(0, 0, 3)x(3, 1, 3, 12)12 - AIC:1703.8500591776663

ARIMA(0, 0, 3)x(3, 1, 4, 12)12 - AIC:5436.349780026695

ARIMA(0, 0, 3)x(3, 2, 0, 12)12 - AIC:1606.927073370261

ARIMA(0, 0, 3)x(3, 2, 1, 12)12 - AIC:1589.7702408400803

ARIMA(0, 0, 3)x(3, 2, 2, 12)12 - AIC:1585.965973499308

ARIMA(0, 0, 3)x(3, 2, 3, 12)12 - AIC:1532.2431510584854

ARIMA(0, 0, 3)x(3, 2, 4, 12)12 - AIC:3825.396222090929

ARIMA(0, 0, 3)x(3, 3, 0, 12)12 - AIC:1481.3932206278928

ARIMA(0, 0, 3)x(3, 3, 1, 12)12 - AIC:1489.404414861014

ARIMA(0, 0, 3)x(3, 3, 2, 12)12 - AIC:1567.069954490396

ARIMA(0, 0, 3)x(3, 3, 3, 12)12 - AIC:nan

ARIMA(0, 0, 3)x(3, 4, 0, 12)12 - AIC:1345.3799730146138

ARIMA(0, 0, 3)x(3, 4, 1, 12)12 - AIC:1498.5286272979167

ARIMA(0, 0, 3)x(3, 4, 2, 12)12 - AIC:1617.7844984869128

ARIMA(0, 0, 3)x(3, 4, 3, 12)12 - AIC:6853.285368457124

ARIMA(0, 0, 3)x(3, 5, 0, 12)12 - AIC:1556.0872633843737

ARIMA(0, 0, 3)x(3, 5, 1, 12)12 - AIC:1557.562754625244

ARIMA(0, 0, 3)x(3, 5, 2, 12)12 - AIC:1559.423717144381

ARIMA(0, 0, 3)x(3, 5, 3, 12)12 - AIC:nan

ARIMA(0, 0, 3)x(4, 0, 0, 12)12 - AIC:1743.3975479033138

ARIMA(0, 0, 3)x(4, 0, 1, 12)12 - AIC:1948.2218452070674

ARIMA(0, 0, 3)x(4, 0, 2, 12)12 - AIC:1773.6848288874066

ARIMA(0, 0, 3)x(4, 0, 3, 12)12 - AIC:1975.3857232038129

ARIMA(0, 0, 3)x(4, 0, 4, 12)12 - AIC:4027.885511566842

ARIMA(0, 0, 3)x(4, 1, 0, 12)12 - AIC:1593.089299216088

ARIMA(0, 0, 3)x(4, 1, 1, 12)12 - AIC:1591.6752776250062

ARIMA(0, 0, 3)x(4, 1, 2, 12)12 - AIC:1585.2701879038316

ARIMA(0, 0, 3)x(4, 1, 3, 12)12 - AIC:1585.9641366912883

ARIMA(0, 0, 3)x(4, 1, 4, 12)12 - AIC:5355.816185671953

ARIMA(0, 0, 3)x(4, 2, 0, 12)12 - AIC:1433.6124449116337

ARIMA(0, 0, 3)x(4, 2, 1, 12)12 - AIC:1425.8798341759739

ARIMA(0, 0, 3)x(4, 2, 2, 12)12 - AIC:1421.2595174282653

ARIMA(0, 0, 3)x(4, 2, 3, 12)12 - AIC:1424.6426824276493

ARIMA(0, 0, 3)x(4, 2, 4, 12)12 - AIC:3322.084197915303

ARIMA(0, 0, 3)x(4, 3, 0, 12)12 - AIC:1308.7342931513235

ARIMA(0, 0, 3)x(4, 3, 1, 12)12 - AIC:1302.0398109780936

ARIMA(0, 0, 3)x(4, 3, 2, 12)12 - AIC:1296.397324780073

ARIMA(0, 0, 3)x(4, 3, 3, 12)12 - AIC:nan

ARIMA(0, 0, 3)x(4, 4, 0, 12)12 - AIC:1273.8672448392824

ARIMA(0, 0, 3)x(4, 4, 1, 12)12 - AIC:1403.9983125737565

ARIMA(0, 0, 3)x(4, 4, 2, 12)12 - AIC:1405.59928014122

ARIMA(0, 0, 3)x(4, 4, 3, 12)12 - AIC:nan

ARIMA(0, 0, 3)x(4, 5, 0, 12)12 - AIC:1320.2681209040095

ARIMA(0, 0, 3)x(4, 5, 1, 12)12 - AIC:1322.123292084706

ARIMA(0, 0, 3)x(4, 5, 2, 12)12 - AIC:1324.1346825258838

ARIMA(0, 0, 3)x(4, 5, 3, 12)12 - AIC:5127.616318185439

ARIMA(0, 0, 3)x(5, 0, 0, 12)12 - AIC:1623.5847245158855

ARIMA(0, 0, 3)x(5, 0, 1, 12)12 - AIC:1903.5714262258573

ARIMA(0, 0, 3)x(5, 0, 2, 12)12 - AIC:1662.0391424954544

ARIMA(0, 0, 3)x(5, 0, 3, 12)12 - AIC:1734.6397563180776

ARIMA(0, 0, 3)x(5, 0, 4, 12)12 - AIC:1813.9285985852043

ARIMA(0, 0, 3)x(5, 1, 0, 12)12 - AIC:1428.4272530623573

ARIMA(0, 0, 3)x(5, 1, 1, 12)12 - AIC:1422.293596523924

ARIMA(0, 0, 3)x(5, 1, 2, 12)12 - AIC:1420.850286099247

ARIMA(0, 0, 3)x(5, 1, 3, 12)12 - AIC:1422.330359402248

ARIMA(0, 0, 3)x(5, 1, 4, 12)12 - AIC:4994.533510844527

ARIMA(0, 0, 3)x(5, 2, 0, 12)12 - AIC:1272.406208007837

ARIMA(0, 0, 3)x(5, 2, 1, 12)12 - AIC:1264.1637421795904

ARIMA(0, 0, 3)x(5, 2, 2, 12)12 - AIC:1265.7653411920887

ARIMA(0, 0, 3)x(5, 2, 3, 12)12 - AIC:1290.0926015834561

ARIMA(0, 0, 3)x(5, 2, 4, 12)12 - AIC:nan

ARIMA(0, 0, 3)x(5, 3, 0, 12)12 - AIC:1128.8626409830613

ARIMA(0, 0, 3)x(5, 3, 1, 12)12 - AIC:1129.4809484422442

ARIMA(0, 0, 3)x(5, 3, 2, 12)12 - AIC:1128.7312385948637

ARIMA(0, 0, 3)x(5, 3, 3, 12)12 - AIC:5826.15081027506

ARIMA(0, 0, 3)x(5, 4, 0, 12)12 - AIC:1190.6611533151395

ARIMA(0, 0, 3)x(5, 4, 1, 12)12 - AIC:1192.454573278856

ARIMA(0, 0, 3)x(5, 4, 2, 12)12 - AIC:1194.3526776878525

ARIMA(0, 0, 3)x(5, 4, 3, 12)12 - AIC:5329.959859592496

